com\alex\mapper\TMemberCertMapper.class
com\alex\mapper\TAccountTypeCertMapper.class
com\alex\mapper\TAdvertisementMapper.class
com\alex\mapper\TTypeMapper.class
com\alex\mapper\TResourceMapper.class
com\alex\mapper\TParamMapper.class
com\alex\mapper\TProjectTagMapper.class
com\alex\mapper\TRolePermissionMapper.class
com\alex\mapper\TRoleMapper.class
com\alex\mapper\TAdminRoleMapper.class
com\alex\mapper\TPermissionResourceMapper.class
com\alex\mapper\TReturnMapper.class
com\alex\mapper\TCertMapper.class
com\alex\mapper\TMemberProjectFollowMapper.class
com\alex\mapper\TMenuMapper.class
com\alex\mapper\TProjectTypeMapper.class
com\alex\mapper\TPermissionMenuMapper.class
com\alex\mapper\TOrderMapper.class
com\alex\mapper\TMessageMapper.class
com\alex\mapper\TMemberAddressMapper.class
com\alex\mapper\TProjectMapper.class
com\alex\mapper\TMemberMapper.class
com\alex\mapper\TTagMapper.class
com\alex\mapper\TPermissionMapper.class
com\alex\mapper\TAdminMapper.class
com\alex\mapper\TTransactionMapper.class
com\alex\mapper\TDictionaryMapper.class
